{
    "variables": {
        "aws_access_key"  : "{{env `AWS_ACCESS_KEY_ID`}}",
        "aws_secret_key"  : "{{env `AWS_SECRET_ACCESS_KEY`}}",
        "region"          : "{{env `AWS_DEFAULT_REGION`}}",
        "cluster_version" : "1.18",
        "ami_name"        : "gnss-eks-node-{{user `cluster_version`}}-{{timestamp}}"
    },
    "builders": [{
        "access_key": "{{user `aws_access_key`}}",
        "secret_key": "{{user `aws_secret_key`}}",
        "type": "amazon-ebs",
        "region": "{{user `region`}}",
        "source_ami_filter": {
            "filters": {
                "virtualization-type": "hvm",
                "root-device-type": "ebs",
                "name": "amazon-eks-node-{{user `cluster_version`}}-v*"
            },
            "owners": ["602401143452"],
            "most_recent": true
        },
        "instance_type": "t2.micro",
        "ssh_username": "ec2-user",
        "ami_name": "{{user `ami_name`}}",
        "ami_users": [ "023072794443" ],
        "tags": {
            "ClusterVersion": "{{user `cluster_version`}}",
            "BaseAMIName": "{{ .SourceAMIName }}",
            "Name": "{{user `ami_name`}}"
        }
    }],
    "provisioners": [
    {
        "pause_before": "30s",
        "type": "file",
        "source": "installtenableagent.sh",
        "destination": "/tmp/installtenableagent.sh"
    },
    {
        "type": "shell",
        "inline": [
            "sudo yum update kernel -y",
            "sudo yum update -y",
            "chmod +x /tmp/installtenableagent.sh",
            "sudo /bin/sh -c 'echo AgGrp_AWS_Linux_Servers_Continuous | /tmp/installtenableagent.sh'",
            "sudo yum install -y https://s3.amazonaws.com/ec2-downloads-windows/SSMAgent/latest/linux_amd64/amazon-ssm-agent.rpm",
            "sudo shutdown -r now"
        ],
        "expect_disconnect": true
    }
    ],
    "post-processors": [
      [
        {
          "output": "manifest.json",
          "strip_path": true,
          "type": "manifest"
        }
      ]
    ]
}
